{"photos":{"page":1,"pages":58494,"perpage":30,"total":"1754820","photo":[{"id":"5110231975","owner":"54844390@N05","secret":"41ce19ef23","server":"1384","farm":2,"title":"cat","ispublic":1,"isfriend":0,"isfamily":0,"license":"6","description":{"_content":"cat"},"ownername":"MowT"},{"id":"3338275165","owner":"51609867@N00","secret":"b00171c504","server":"3594","farm":4,"title":"Cats","ispublic":1,"isfriend":0,"isfamily":0,"license":"5","description":{"_content":"Cats"},"ownername":"anderoo"},{"id":"14962688165","owner":"57563162@N02","secret":"04759a8b03","server":"3894","farm":4,"title":"Cat","ispublic":1,"isfriend":0,"isfamily":0,"license":"2","description":{"_content":"It's a cat."},"ownername":"tomhouslay"},{"id":"7051136579","owner":"29468339@N02","secret":"74261c7025","server":"7131","farm":8,"title":"Cat","ispublic":1,"isfriend":0,"isfamily":0,"license":"1","description":{"_content":"Cat"},"ownername":"@Doug88888"},{"id":"4846467864","owner":"26231076@N02","secret":"5f1049d4d9","server":"4087","farm":5,"title":"cats","ispublic":1,"isfriend":0,"isfamily":0,"license":"1","description":{"_content":""},"ownername":"ianaiare"},{"id":"5099838147","owner":"15551749@N00","secret":"7fb965658a","server":"1235","farm":2,"title":"Cat","ispublic":1,"isfriend":0,"isfamily":0,"license":"4","description":{"_content":"Cat"},"ownername":"Simon G\u00f6tz"},{"id":"15271257531","owner":"23891237@N03","secret":"b816e344c5","server":"3921","farm":4,"title":"cat","ispublic":1,"isfriend":0,"isfamily":0,"license":"3","description":{"_content":""},"ownername":"kamanabe"},{"id":"4298442411","owner":"12071643@N00","secret":"40f5df9c2c","server":"2803","farm":3,"title":"Cat!","ispublic":1,"isfriend":0,"isfamily":0,"license":"1","description":{"_content":""},"ownername":"gotencool"},{"id":"8707465155","owner":"46634697@N08","secret":"52c6c3358d","server":"8270","farm":9,"title":"Cat","ispublic":1,"isfriend":0,"isfamily":0,"license":"2","description":{"_content":"My mum's neighbour's cat in my mum's garden."},"ownername":"nembow"},{"id":"2592564716","owner":"14589775@N00","secret":"3b502db489","server":"3194","farm":4,"title":"cat","ispublic":1,"isfriend":0,"isfamily":0,"license":"4","description":{"_content":"From <a href=\"http:\/\/www.flickr.com\/photos\/evapro\/385650640\/\">cat mandu<\/a>"},"ownername":"Sparticus"},{"id":"15063747768","owner":"7788419@N05","secret":"1e63529953","server":"3849","farm":4,"title":"Cat","ispublic":1,"isfriend":0,"isfamily":0,"license":"4","description":{"_content":"Mostly white cat contemplates her coffee order\n\n\u201cWhat did you say is the espresso-to-milk ratio in your flat white?\u201d"},"ownername":"strogoscope"},{"id":"6314674432","owner":"56125639@N07","secret":"cc2b1db4e1","server":"6091","farm":7,"title":"cat","ispublic":1,"isfriend":0,"isfamily":0,"license":"4","description":{"_content":""},"ownername":"hkase"},{"id":"4175365448","owner":"21503093@N03","secret":"2aee27a0af","server":"2551","farm":3,"title":"Cat","ispublic":1,"isfriend":0,"isfamily":0,"license":"2","description":{"_content":"Found this image looking @ some old images, played around with some effects, ended up with this."},"ownername":"Bj\u00f8rnli Foto"},{"id":"6301649120","owner":"27463829@N07","secret":"337e825770","server":"6102","farm":7,"title":"Cat","ispublic":1,"isfriend":0,"isfamily":0,"license":"1","description":{"_content":""},"ownername":"duckophile"},{"id":"15087805548","owner":"23891237@N03","secret":"1c11d88862","server":"3925","farm":4,"title":"cat","ispublic":1,"isfriend":0,"isfamily":0,"license":"3","description":{"_content":""},"ownername":"kamanabe"},{"id":"327949731","owner":"50183570@N00","secret":"241ef18278","server":"137","farm":1,"title":"Cat","ispublic":1,"isfriend":0,"isfamily":0,"license":"3","description":{"_content":""},"ownername":"Ava Babili"},{"id":"8332149598","owner":"55208341@N06","secret":"1132474f78","server":"8494","farm":9,"title":"Cats","ispublic":1,"isfriend":0,"isfamily":0,"license":"5","description":{"_content":""},"ownername":"DPK_Photography"},{"id":"4336672675","owner":"82056689@N00","secret":"bf4fedf0be","server":"4058","farm":5,"title":"Cat","ispublic":1,"isfriend":0,"isfamily":0,"license":"1","description":{"_content":"Cat"},"ownername":"CatladyOfSweden"},{"id":"2082202628","owner":"88886541@N00","secret":"93aca5baf0","server":"2034","farm":3,"title":"cat","ispublic":1,"isfriend":0,"isfamily":0,"license":"3","description":{"_content":"My parents cat, shot with canon 430ex on cord to get the side lighting."},"ownername":"ovendelon"},{"id":"5314837735","owner":"50183570@N00","secret":"81b642d3a6","server":"5210","farm":6,"title":"Cat","ispublic":1,"isfriend":0,"isfamily":0,"license":"3","description":{"_content":""},"ownername":"Ava Babili"},{"id":"5224836147","owner":"49462424@N02","secret":"4edbe2be2d","server":"5001","farm":6,"title":"Cat","ispublic":1,"isfriend":0,"isfamily":0,"license":"4","description":{"_content":""},"ownername":"HeyDanielle"},{"id":"4742743785","owner":"13796250@N00","secret":"fb8016b082","server":"4137","farm":5,"title":"Cat","ispublic":1,"isfriend":0,"isfamily":0,"license":"4","description":{"_content":""},"ownername":"Kristine Paulus"},{"id":"9725314122","owner":"92842970@N00","secret":"47d5e1bbf8","server":"3719","farm":4,"title":"cat","ispublic":1,"isfriend":0,"isfamily":0,"license":"5","description":{"_content":""},"ownername":"ivva"},{"id":"8216651938","owner":"79360197@N05","secret":"2d29ec5d05","server":"8057","farm":9,"title":"Cat","ispublic":1,"isfriend":0,"isfamily":0,"license":"2","description":{"_content":"The Usual Cat With 50mm"},"ownername":"Ruzaqir Rachman (Back To Action)"},{"id":"2310730371","owner":"24368520@N03","secret":"9b57544751","server":"3214","farm":4,"title":"Cat","ispublic":1,"isfriend":0,"isfamily":0,"license":"1","description":{"_content":"My aunt's cat."},"ownername":"partybooper_rob"},{"id":"5328688503","owner":"57873464@N06","secret":"fdd05ef0ed","server":"5249","farm":6,"title":"Cat","ispublic":1,"isfriend":0,"isfamily":0,"license":"4","description":{"_content":""},"ownername":"wapiko\u2606"},{"id":"8378612","owner":"50642338@N00","secret":"34ab6787ae","server":"6","farm":1,"title":"Cat","ispublic":1,"isfriend":0,"isfamily":0,"license":"5","description":{"_content":"I met this cat at a flat we saw.  The smell of tobacco had permeated the walls.  I suspect this had something to do with the hookah sitting in the living room."},"ownername":"sfllaw"},{"id":"40233362854","owner":"137207740@N06","secret":"178a5ae4df","server":"794","farm":1,"title":"cats","ispublic":1,"isfriend":0,"isfamily":0,"license":"2","description":{"_content":""},"ownername":"Zo\u00eb Tanghe"},{"id":"7176174366","owner":"79701911@N00","secret":"664849133a","server":"8142","farm":9,"title":"Cat","ispublic":1,"isfriend":0,"isfamily":0,"license":"3","description":{"_content":"cat_8823a_crop-close"},"ownername":"Adrian Midgley"},{"id":"34816168765","owner":"23891237@N03","secret":"1b0159dffb","server":"4219","farm":5,"title":"cat","ispublic":1,"isfriend":0,"isfamily":0,"license":"3","description":{"_content":""},"ownername":"kamanabe"}]},"stat":"ok"}