{"photos":{"page":1,"pages":71834,"perpage":30,"total":"2155013","photo":[{"id":"2485380411","owner":"14864543@N02","secret":"027d6f5e04","server":"3102","farm":4,"title":"Dog","ispublic":1,"isfriend":0,"isfamily":0,"license":"1","description":{"_content":""},"ownername":"Driton Avdyli"},{"id":"5649455359","owner":"59478940@N02","secret":"e337e2da3a","server":"5102","farm":6,"title":"Dog","ispublic":1,"isfriend":0,"isfamily":0,"license":"2","description":{"_content":""},"ownername":"Ezio Melotti"},{"id":"7058942935","owner":"67803920@N06","secret":"d29b5c4778","server":"7075","farm":8,"title":"Dog","ispublic":1,"isfriend":0,"isfamily":0,"license":"6","description":{"_content":""},"ownername":"LuAnn Snawder Photography"},{"id":"1312241081","owner":"8590522@N06","secret":"e54ad05261","server":"1050","farm":2,"title":"Dog","ispublic":1,"isfriend":0,"isfamily":0,"license":"3","description":{"_content":""},"ownername":"foshydog"},{"id":"14435925967","owner":"123012432@N04","secret":"fe5118c2f7","server":"3886","farm":4,"title":"Dog","ispublic":1,"isfriend":0,"isfamily":0,"license":"3","description":{"_content":""},"ownername":"JamesHarrison_"},{"id":"6965167340","owner":"72449177@N03","secret":"49de2d4bdc","server":"7053","farm":8,"title":"dog","ispublic":1,"isfriend":0,"isfamily":0,"license":"6","description":{"_content":""},"ownername":"moridellatorre"},{"id":"5514206982","owner":"57647512@N08","secret":"c8acb517ee","server":"5259","farm":6,"title":"dog","ispublic":1,"isfriend":0,"isfamily":0,"license":"4","description":{"_content":""},"ownername":"martinastley"},{"id":"15948233039","owner":"13523064@N03","secret":"dce2e95176","server":"7501","farm":8,"title":"Dogs","ispublic":1,"isfriend":0,"isfamily":0,"license":"6","description":{"_content":""},"ownername":"llee_wu"},{"id":"4073677420","owner":"32573704@N00","secret":"76ba2ee2c0","server":"2526","farm":3,"title":"Dogs!","ispublic":1,"isfriend":0,"isfamily":0,"license":"2","description":{"_content":""},"ownername":"nehavish"},{"id":"32642834612","owner":"55856449@N04","secret":"765b810ec6","server":"2411","farm":3,"title":"Dog","ispublic":1,"isfriend":0,"isfamily":0,"license":"5","description":{"_content":""},"ownername":"Infomastern"},{"id":"116694254","owner":"52184765@N00","secret":"9ee8c78055","server":"35","farm":1,"title":"dogs","ispublic":1,"isfriend":0,"isfamily":0,"license":"3","description":{"_content":"More random dog pictures."},"ownername":"Adam Tollinger"},{"id":"15270725173","owner":"49907242@N05","secret":"96ae050af2","server":"7546","farm":8,"title":"dog","ispublic":1,"isfriend":0,"isfamily":0,"license":"3","description":{"_content":""},"ownername":"Pimthida"},{"id":"3881790828","owner":"39812232@N00","secret":"a6823ff300","server":"2589","farm":3,"title":"dog","ispublic":1,"isfriend":0,"isfamily":0,"license":"3","description":{"_content":"Call me a dog\n\n<a href=\"http://www.goear.com/listen/ccd383b/call-me-a-dog-chriss-cornell\" rel=\"nofollow\">www.goear.com/listen/ccd383b/call-me-a-dog-chriss-cornell</a>"},"ownername":"Eduardo Llanquileo"},{"id":"14635268133","owner":"119639334@N04","secret":"7806dbd4ce","server":"5539","farm":6,"title":"Dog","ispublic":1,"isfriend":0,"isfamily":0,"license":"1","description":{"_content":"Trip home to France July 2014"},"ownername":"peterasaxon"},{"id":"35241989476","owner":"155825583@N02","secret":"f430b335ca","server":"4286","farm":5,"title":"dog","ispublic":1,"isfriend":0,"isfamily":0,"license":"1","description":{"_content":""},"ownername":"florianloeber"},{"id":"501918948","owner":"35404133@N00","secret":"726c701301","server":"198","farm":1,"title":"Dog","ispublic":1,"isfriend":0,"isfamily":0,"license":"1","description":{"_content":"Some dog in the Wuerselen Stadtpark"},"ownername":"Thomas Freudenberg"},{"id":"18198955","owner":"90555610@N00","secret":"a31b5e81e5","server":"13","farm":1,"title":"Dog","ispublic":1,"isfriend":0,"isfamily":0,"license":"3","description":{"_content":"Took this picture at a local festival. I have no idea if the dog has one ear or two."},"ownername":"whatmeworry101"},{"id":"31981671913","owner":"55856449@N04","secret":"92c31fb05d","server":"381","farm":1,"title":"Dog","ispublic":1,"isfriend":0,"isfamily":0,"license":"5","description":{"_content":""},"ownername":"Infomastern"},{"id":"4487916600","owner":"40693861@N05","secret":"3fa96461e8","server":"4035","farm":5,"title":"dog","ispublic":1,"isfriend":0,"isfamily":0,"license":"1","description":{"_content":""},"ownername":"dantelecan"},{"id":"2373736788","owner":"7256415@N03","secret":"54223b9be7","server":"2132","farm":3,"title":"Dog","ispublic":1,"isfriend":0,"isfamily":0,"license":"3","description":{"_content":"Cosey sister's dog Molly"},"ownername":"Chris_Carter_"},{"id":"15554409231","owner":"13523064@N03","secret":"94f7bbb131","server":"3929","farm":4,"title":"Dog","ispublic":1,"isfriend":0,"isfamily":0,"license":"6","description":{"_content":""},"ownername":"llee_wu"},{"id":"4845881740","owner":"26170836@N05","secret":"c462eb6b9b","server":"4148","farm":5,"title":"Dog","ispublic":1,"isfriend":0,"isfamily":0,"license":"5","description":{"_content":""},"ownername":"sk8geek"},{"id":"14414915901","owner":"124335768@N04","secret":"6386a6d0db","server":"5479","farm":6,"title":"Dog","ispublic":1,"isfriend":0,"isfamily":0,"license":"1","description":{"_content":""},"ownername":"PorcArt"},{"id":"4694347946","owner":"33784010@N07","secret":"7e874ab8ef","server":"4071","farm":5,"title":"Dog","ispublic":1,"isfriend":0,"isfamily":0,"license":"4","description":{"_content":""},"ownername":"nvainio"},{"id":"4806555710","owner":"73905049@N00","secret":"3a6b2deec6","server":"4137","farm":5,"title":"Dog!","ispublic":1,"isfriend":0,"isfamily":0,"license":"5","description":{"_content":"My young Wellington."},"ownername":"niceguyjames"},{"id":"170259016","owner":"43626095@N00","secret":"96f40b86d0","server":"59","farm":1,"title":"Dog","ispublic":1,"isfriend":0,"isfamily":0,"license":"3","description":{"_content":"Here's a shot of Brandi from today at Frank's house in Chilliwack.  I cleaned it up slightly in photoshop (there was a piece of grass across his nose I deleted)."},"ownername":"Duane Storey"},{"id":"6958311094","owner":"29638108@N06","secret":"589ddf451f","server":"8165","farm":9,"title":"Dog","ispublic":1,"isfriend":0,"isfamily":0,"license":"4","description":{"_content":" Samsung digital camera"},"ownername":"www.metaphoricalplatypus.com"},{"id":"42203009","owner":"98624608@N00","secret":"7c20591deb","server":"33","farm":1,"title":"Dog","ispublic":1,"isfriend":0,"isfamily":0,"license":"1","description":{"_content":""},"ownername":"Tim Morgan"},{"id":"339550285","owner":"68469845@N00","secret":"c9ddd708ce","server":"136","farm":1,"title":"Dog","ispublic":1,"isfriend":0,"isfamily":0,"license":"3","description":{"_content":""},"ownername":"rajthesnapper"},{"id":"230080238","owner":"63438388@N00","secret":"11352575af","server":"88","farm":1,"title":"dOg.","ispublic":1,"isfriend":0,"isfamily":0,"license":"1","description":{"_content":""},"ownername":"shivaelektra"}]},"stat":"ok"}
