{"photos":{"page":1,"pages":8711,"perpage":30,"total":"261303","photo":[{"id":"4250909641","owner":"22516874@N00","secret":"9efb767769","server":"4064","farm":5,"title":"eggs","ispublic":1,"isfriend":0,"isfamily":0,"license":"6","description":{"_content":""},"ownername":"fbroschart"},{"id":"15620520218","owner":"55951622@N06","secret":"bea0deb8c3","server":"5613","farm":6,"title":"Eggs","ispublic":1,"isfriend":0,"isfamily":0,"license":"2","description":{"_content":""},"ownername":"sjors.ruygrok"},{"id":"3655788205","owner":"79457539@N00","secret":"cb25f73e5d","server":"3581","farm":4,"title":"Egg","ispublic":1,"isfriend":0,"isfamily":0,"license":"5","description":{"_content":"Flere kontraster"},"ownername":"Hjorthefoto"},{"id":"2834880883","owner":"17856604@N00","secret":"60b0236e87","server":"3227","farm":4,"title":"Eggs","ispublic":1,"isfriend":0,"isfamily":0,"license":"3","description":{"_content":""},"ownername":"Helen K"},{"id":"3239603664","owner":"36761653@N00","secret":"7240521e80","server":"3134","farm":4,"title":"Egg","ispublic":1,"isfriend":0,"isfamily":0,"license":"1","description":{"_content":""},"ownername":"Andreas Solberg"},{"id":"190777379","owner":"96089225@N00","secret":"6d6d99ff88","server":"74","farm":1,"title":"Egg","ispublic":1,"isfriend":0,"isfamily":0,"license":"6","description":{"_content":""},"ownername":"MinivanNinja"},{"id":"5219850239","owner":"29638108@N06","secret":"37186d7980","server":"4132","farm":5,"title":"Eggs","ispublic":1,"isfriend":0,"isfamily":0,"license":"4","description":{"_content":""},"ownername":"www.metaphoricalplatypus.com"},{"id":"6037156602","owner":"10626381@N00","secret":"1c6f791185","server":"6208","farm":7,"title":"eggs","ispublic":1,"isfriend":0,"isfamily":0,"license":"2","description":{"_content":"heirloom eggs in a nice pistachio shade"},"ownername":"wck"},{"id":"463471918","owner":"51845556@N00","secret":"e876b3fc5f","server":"175","farm":1,"title":"eggs","ispublic":1,"isfriend":0,"isfamily":0,"license":"6","description":{"_content":"black and white fun"},"ownername":"just_a_name_thingie"},{"id":"6821448744","owner":"16482030@N00","secret":"6dc89368fe","server":"7040","farm":8,"title":"Eggs","ispublic":1,"isfriend":0,"isfamily":0,"license":"2","description":{"_content":""},"ownername":"rocor"},{"id":"440639666","owner":"27195496@N00","secret":"f215d1f53a","server":"176","farm":1,"title":"Eggs","ispublic":1,"isfriend":0,"isfamily":0,"license":"1","description":{"_content":"Cleo has a selection of chickens that produce a variety of delicious eggs."},"ownername":"FlickrDelusions"},{"id":"3210353070","owner":"34420214@N03","secret":"a934a13b33","server":"3438","farm":4,"title":"Robin Eggs","ispublic":1,"isfriend":0,"isfamily":0,"license":"2","description":{"_content":"Robin eggs laid on a truck tire! I cranked the contrast and changed the temp to really bring out the blue. Edge blur added for effect."},"ownername":"Funkybeatz"},{"id":"5313353035","owner":"22937701@N00","secret":"209f2bf880","server":"5002","farm":6,"title":"fried egg supernova","ispublic":1,"isfriend":0,"isfamily":0,"license":"5","description":{"_content":"Two eggs frying in the same pan\n\nUpdate: included in this story about double egg yolks <a href=\"http://www.iusedtobestupid.com/2011/03/double-yolk/\" rel=\"nofollow\">www.iusedtobestupid.com/2011/03/double-yolk/</a>\n\nand in this story about buying eggs <a href=\"http://www.theimpulsivebuy.com/wordpress/2012/03/03/week-in-reviews-332012/\" rel=\"nofollow\">www.theimpulsivebuy.com/wordpress/2012/03/03/week-in-revi...</a>\n\nAlso used in this German YouTube video comparing breakfast foods <a href=\"http://www.youtube.com/watch?v=ndGj3rnXJWA\" rel=\"nofollow\">www.youtube.com/watch?v=ndGj3rnXJWA</a>\n\nAnd in a Buzzfeed post (based on a Reddit thread) illustrating weird things kids say during Sex-Ed class <a href=\"http://www.buzzfeed.com/erinchack/weird-things-kids-said-in-sex-ed\" rel=\"nofollow\">www.buzzfeed.com/erinchack/weird-things-kids-said-in-sex-ed</a>\n\nFeatured photo in this Chow post about how to fry the perfect eggs <a href=\"http://www.chow.com/food-news/145491/flip-eggs-in-the-pan-like-a-pro/?tag=nl.e356&amp;s_cid=e356&amp;ttag=e356&amp;ftag=TRE749fc57\" rel=\"nofollow\">www.chow.com/food-news/145491/flip-eggs-in-the-pan-like-a...</a>\n\nAs seen in this Thrillist listicle <a href=\"http://www.thrillist.com/travel/nation/weirdest-american-town-names-stoner-dull-oral-and-more\" rel=\"nofollow\">www.thrillist.com/travel/nation/weirdest-american-town-na...</a>\n\nUsed in this Vox magazine story about what kinds of eggs people prefer <a href=\"http://www.voxmagazine.com/food/what-s-crackin-columbia-see-how-restaurants-serve-up-there/article_3f5f9040-0742-11e6-a053-637b96ca6416.html\" rel=\"nofollow\">www.voxmagazine.com/food/what-s-crackin-columbia-see-how-...</a>\n\nAs seen in this Japanese blog post about a local egg dish <a href=\"http://www.rurubu.com/news/detail.aspx?ArticleID=11201\" rel=\"nofollow\">www.rurubu.com/news/detail.aspx?ArticleID=11201</a>\n\nFeatured photo for this radio story <a href=\"http://www.abc.net.au/radio/perth/programs/wa-afternoons/getting-more-vitamin-d-from-our-diet/8533914\" rel=\"nofollow\">www.abc.net.au/radio/perth/programs/wa-afternoons/getting...</a>\n\nUsed in another Buzzfeed quiz about British food <a href=\"https://www.buzzfeed.com/jamiejones/are-you-more-northern-or-southern?utm_term=.bdR34Klg4#.nqYb3Z8o3\" rel=\"nofollow\">www.buzzfeed.com/jamiejones/are-you-more-northern-or-sout...</a>\n\nAs seen in this blog post about how to get better nutrients <a href=\"http://blog.thebreastcancersite.com/cs-vitamins-fight-cancer/\" rel=\"nofollow\">blog.thebreastcancersite.com/cs-vitamins-fight-cancer/</a>\n\nUsed in this quiz about breakfast foods <a href=\"https://www.topixoffbeat.com/quiz/18703/qidx24\" rel=\"nofollow\">www.topixoffbeat.com/quiz/18703/qidx24</a>"},"ownername":"MattHurst"},{"id":"6967453333","owner":"35423131@N06","secret":"6edfff6f67","server":"7058","farm":8,"title":"Eggs and Tomatoes","ispublic":1,"isfriend":0,"isfamily":0,"license":"4","description":{"_content":"shaved garlic and olive oil"},"ownername":"shilobar"},{"id":"3193940038","owner":"77281345@N00","secret":"e155de06f6","server":"3262","farm":4,"title":"Eggs","ispublic":1,"isfriend":0,"isfamily":0,"license":"3","description":{"_content":""},"ownername":"tmilewski"},{"id":"21780082231","owner":"67164820@N06","secret":"a04070843c","server":"729","farm":1,"title":"eggs","ispublic":1,"isfriend":0,"isfamily":0,"license":"1","description":{"_content":"Asian markets are great places for a photo walk."},"ownername":"foxtail_1"},{"id":"5287623637","owner":"52042499@N00","secret":"f80f5a86b6","server":"5167","farm":6,"title":"Perfect Egg","ispublic":1,"isfriend":0,"isfamily":0,"license":"3","description":{"_content":"This is the most perfectly boiled egg I have ever cooked. I'm practicing so the eggs are perfect for my Christmas Eve Kedgeree."},"ownername":"Hamburger Helper"},{"id":"14918561","owner":"50933076@N00","secret":"fb2f8c3bb8","server":"10","farm":1,"title":"Eggs","ispublic":1,"isfriend":0,"isfamily":0,"license":"1","description":{"_content":"I started numbering my eggs because I have always been bad with math. This is why I went to MIT and majored in History. The fact they come in boxes of 15 instead of 12 in Denmark is killing me! Now I always know how many eggs I have left! Thanks to my sharp mind I will never run out of eggs again."},"ownername":"sir chalky"},{"id":"8285949041","owner":"32745330@N00","secret":"985eb69a65","server":"8356","farm":9,"title":"Eggs","ispublic":1,"isfriend":0,"isfamily":0,"license":"5","description":{"_content":"Eggs"},"ownername":"tenz1225"},{"id":"443473077","owner":"23334460@N00","secret":"3091d3eff2","server":"176","farm":1,"title":"devilled eggs","ispublic":1,"isfriend":0,"isfamily":0,"license":"3","description":{"_content":"devilled eggs for an early Easter dinner"},"ownername":"freakgirl"},{"id":"14983468332","owner":"69713099@N04","secret":"aa42c9f1e3","server":"5562","farm":6,"title":"Hard Boiled Eggs","ispublic":1,"isfriend":0,"isfamily":0,"license":"6","description":{"_content":""},"ownername":"Claricethebakergardener"},{"id":"3452974898","owner":"80093862@N00","secret":"ae0493818b","server":"3633","farm":4,"title":"Eggs","ispublic":1,"isfriend":0,"isfamily":0,"license":"4","description":{"_content":""},"ownername":"Gudlyf"},{"id":"4580157490","owner":"77616860@N00","secret":"f32db73fca","server":"4042","farm":5,"title":"easter eggs","ispublic":1,"isfriend":0,"isfamily":0,"license":"1","description":{"_content":""},"ownername":"sorakirei"},{"id":"8540365146","owner":"38357990@N05","secret":"1f513ccfa3","server":"8370","farm":9,"title":"egg-2","ispublic":1,"isfriend":0,"isfamily":0,"license":"4","description":{"_content":""},"ownername":"TALMADGEBOYD"},{"id":"6282003022","owner":"11118440@N00","secret":"3218faff1f","server":"6042","farm":7,"title":"Tiny egg","ispublic":1,"isfriend":0,"isfamily":0,"license":"2","description":{"_content":"I think it's from my Wheaten Marans pullet.  Now, pullet eggs are small, but this is just comical."},"ownername":"Cowgirl Jules"},{"id":"6464464399","owner":"16172140@N00","secret":"1fee0d8e06","server":"7171","farm":8,"title":"Egg #7","ispublic":1,"isfriend":0,"isfamily":0,"license":"2","description":{"_content":"Just playing with different lights, angles, and cropping."},"ownername":"Fetching Photos"},{"id":"12262692285","owner":"48552055@N03","secret":"5839570300","server":"3810","farm":4,"title":"Eggs!","ispublic":1,"isfriend":0,"isfamily":0,"license":"2","description":{"_content":"020114 - The hens are laying a lot of eggs.  We have 10 chickens and some days we find 13 eggs.  Someone is working overtime."},"ownername":"The Wild Roam Free"},{"id":"33123814242","owner":"88380809@N07","secret":"bb15a167f2","server":"3723","farm":4,"title":"You're so elegant today! (MM Egg)","ispublic":1,"isfriend":0,"isfamily":0,"license":"1","description":{"_content":""},"ownername":"miroslav0108"},{"id":"422217297","owner":"33385510@N00","secret":"7bb90efd66","server":"132","farm":1,"title":"smells like egg spirit","ispublic":1,"isfriend":0,"isfamily":0,"license":"3","description":{"_content":"better on black: \n<a href=\"http://bighugelabs.com/flickr/onblack.php?id=422217297\">'smells like egg spirit' On Black</a>"},"ownername":"Rodrigo Benavides"},{"id":"8732321933","owner":"99111035@N00","secret":"6b5cc7c25a","server":"7283","farm":8,"title":"pretty eggs","ispublic":1,"isfriend":0,"isfamily":0,"license":"2","description":{"_content":"     These are not from my chickens; these are fertile eggs that my chickens are sitting on. Hoping we hatch some really neat hens!                          "},"ownername":"MaryEllen and Paul"}]},"stat":"ok"}
