{
    "photos": {
        "page": 1,
        "pages": 28431,
        "perpage": 30,
        "total": "852923",
        "photo": [
            {
                "id": "15435572367",
                "owner": "44826137@N05",
                "secret": "501ae8d91a",
                "server": "3953",
                "farm": 4,
                "title": "Fish",
                "ispublic": 1,
                "isfriend": 0,
                "isfamily": 0,
                "license": "5",
                "description": {
                    "_content": ""
                },
                "ownername": "Vincent-Lin"
            },
            {
                "id": "7696189172",
                "owner": "30374743@N03",
                "secret": "7c8e87d1fe",
                "server": "8007",
                "farm": 9,
                "title": "Fish",
                "ispublic": 1,
                "isfriend": 0,
                "isfamily": 0,
                "license": "4",
                "description": {
                    "_content": "                "
                },
                "ownername": "Dave Williss"
            },
            {
                "id": "7421840342",
                "owner": "22348474@N06",
                "secret": "bcabc0cfe9",
                "server": "7111",
                "farm": 8,
                "title": "Fish",
                "ispublic": 1,
                "isfriend": 0,
                "isfamily": 0,
                "license": "3",
                "description": {
                    "_content": ""
                },
                "ownername": "Spike_Stitch"
            },
            {
                "id": "25512150434",
                "owner": "91501748@N07",
                "secret": "8dc8241cb2",
                "server": "1648",
                "farm": 2,
                "title": "fish",
                "ispublic": 1,
                "isfriend": 0,
                "isfamily": 0,
                "license": "9",
                "description": {
                    "_content": "fish"
                },
                "ownername": "Mathias Appel"
            },
            {
                "id": "3046278754",
                "owner": "11721658@N00",
                "secret": "0076df1839",
                "server": "3191",
                "farm": 4,
                "title": "Fish",
                "ispublic": 1,
                "isfriend": 0,
                "isfamily": 0,
                "license": "4",
                "description": {
                    "_content": ""
                },
                "ownername": "Pardee Ave."
            },
            {
                "id": "3045443107",
                "owner": "11721658@N00",
                "secret": "dd4dc023fe",
                "server": "3163",
                "farm": 4,
                "title": "Fish",
                "ispublic": 1,
                "isfriend": 0,
                "isfamily": 0,
                "license": "4",
                "description": {
                    "_content": ""
                },
                "ownername": "Pardee Ave."
            },
            {
                "id": "7547753410",
                "owner": "91151414@N00",
                "secret": "ec78c4ffec",
                "server": "8015",
                "farm": 9,
                "title": "Fish",
                "ispublic": 1,
                "isfriend": 0,
                "isfamily": 0,
                "license": "6",
                "description": {
                    "_content": ""
                },
                "ownername": "The Eggplant"
            },
            {
                "id": "2686977034",
                "owner": "11165681@N00",
                "secret": "6602927a88",
                "server": "3245",
                "farm": 4,
                "title": "Fish",
                "ispublic": 1,
                "isfriend": 0,
                "isfamily": 0,
                "license": "3",
                "description": {
                    "_content": "London Aquarium, July 2008"
                },
                "ownername": "Lebatihem"
            },
            {
                "id": "7547749252",
                "owner": "91151414@N00",
                "secret": "ed195fd937",
                "server": "7258",
                "farm": 8,
                "title": "Fish",
                "ispublic": 1,
                "isfriend": 0,
                "isfamily": 0,
                "license": "6",
                "description": {
                    "_content": ""
                },
                "ownername": "The Eggplant"
            },
            {
                "id": "942281166",
                "owner": "10450042@N02",
                "secret": "52e233378e",
                "server": "1072",
                "farm": 2,
                "title": "fish",
                "ispublic": 1,
                "isfriend": 0,
                "isfamily": 0,
                "license": "1",
                "description": {
                    "_content": ""
                },
                "ownername": "punchihang01"
            },
            {
                "id": "6957354120",
                "owner": "9259731@N07",
                "secret": "9b0b90a2ba",
                "server": "7109",
                "farm": 8,
                "title": "Fish",
                "ispublic": 1,
                "isfriend": 0,
                "isfamily": 0,
                "license": "3",
                "description": {
                    "_content": ""
                },
                "ownername": "anxiousgeek"
            },
            {
                "id": "29202888",
                "owner": "91151414@N00",
                "secret": "61b20adf6c",
                "server": "23",
                "farm": 1,
                "title": "Fish",
                "ispublic": 1,
                "isfriend": 0,
                "isfamily": 0,
                "license": "6",
                "description": {
                    "_content": ""
                },
                "ownername": "The Eggplant"
            },
            {
                "id": "29789520",
                "owner": "59781591@N00",
                "secret": "91387027da",
                "server": "21",
                "farm": 1,
                "title": "Fish",
                "ispublic": 1,
                "isfriend": 0,
                "isfamily": 0,
                "license": "3",
                "description": {
                    "_content": "Boston Aquarium, Boston, Massachusetts"
                },
                "ownername": "Frank Peters"
            },
            {
                "id": "7696191498",
                "owner": "30374743@N03",
                "secret": "3ca5f3dd49",
                "server": "8013",
                "farm": 9,
                "title": "Fish",
                "ispublic": 1,
                "isfriend": 0,
                "isfamily": 0,
                "license": "4",
                "description": {
                    "_content": "         "
                },
                "ownername": "Dave Williss"
            },
            {
                "id": "2194074100",
                "owner": "68519302@N00",
                "secret": "f1cddde72d",
                "server": "2234",
                "farm": 3,
                "title": "Fish",
                "ispublic": 1,
                "isfriend": 0,
                "isfamily": 0,
                "license": "1",
                "description": {
                    "_content": ""
                },
                "ownername": "M1ke-Skydive"
            },
            {
                "id": "4001281270",
                "owner": "72141646@N00",
                "secret": "1db66966e0",
                "server": "2496",
                "farm": 3,
                "title": "Fish",
                "ispublic": 1,
                "isfriend": 0,
                "isfamily": 0,
                "license": "5",
                "description": {
                    "_content": "Close up of fish swimming between the 2 tanks."
                },
                "ownername": "B.D.'s world"
            },
            {
                "id": "2999755238",
                "owner": "28461647@N06",
                "secret": "c2b5ac3dcd",
                "server": "3145",
                "farm": 4,
                "title": "Fishing",
                "ispublic": 1,
                "isfriend": 0,
                "isfamily": 0,
                "license": "4",
                "description": {
                    "_content": ""
                },
                "ownername": "truth82"
            },
            {
                "id": "5044317768",
                "owner": "85517171@N00",
                "secret": "df39163249",
                "server": "4151",
                "farm": 5,
                "title": "Fish",
                "ispublic": 1,
                "isfriend": 0,
                "isfamily": 0,
                "license": "2",
                "description": {
                    "_content": ""
                },
                "ownername": "Mesq"
            },
            {
                "id": "29199913",
                "owner": "91151414@N00",
                "secret": "96e4f74917",
                "server": "21",
                "farm": 1,
                "title": "Fish",
                "ispublic": 1,
                "isfriend": 0,
                "isfamily": 0,
                "license": "6",
                "description": {
                    "_content": ""
                },
                "ownername": "The Eggplant"
            },
            {
                "id": "500238658",
                "owner": "8210228@N07",
                "secret": "d13e831d23",
                "server": "227",
                "farm": 1,
                "title": "fish",
                "ispublic": 1,
                "isfriend": 0,
                "isfamily": 0,
                "license": "1",
                "description": {
                    "_content": "White cloud mountain minow"
                },
                "ownername": "danielsbaker"
            },
            {
                "id": "7103470205",
                "owner": "9259731@N07",
                "secret": "0a69d50f7e",
                "server": "8141",
                "farm": 9,
                "title": "Fish",
                "ispublic": 1,
                "isfriend": 0,
                "isfamily": 0,
                "license": "3",
                "description": {
                    "_content": ""
                },
                "ownername": "anxiousgeek"
            },
            {
                "id": "4579433190",
                "owner": "62129737@N00",
                "secret": "742bba9b68",
                "server": "4031",
                "farm": 5,
                "title": "Fish",
                "ispublic": 1,
                "isfriend": 0,
                "isfamily": 0,
                "license": "5",
                "description": {
                    "_content": ""
                },
                "ownername": "Stefan David, CamperCo.de"
            },
            {
                "id": "8021906239",
                "owner": "72841285@N00",
                "secret": "c0e99e3f5e",
                "server": "8040",
                "farm": 9,
                "title": "Fish",
                "ispublic": 1,
                "isfriend": 0,
                "isfamily": 0,
                "license": "4",
                "description": {
                    "_content": "I keep seeing this guy. Why won't he stop to tell me his name?"
                },
                "ownername": "nathanmac87"
            },
            {
                "id": "14973395495",
                "owner": "126773975@N03",
                "secret": "e3f925ae28",
                "server": "5567",
                "farm": 6,
                "title": "Fish",
                "ispublic": 1,
                "isfriend": 0,
                "isfamily": 0,
                "license": "5",
                "description": {
                    "_content": ""
                },
                "ownername": "Emma Nibaru"
            },
            {
                "id": "122019775",
                "owner": "75806696@N00",
                "secret": "8b9babc8b5",
                "server": "40",
                "farm": 1,
                "title": "Fish",
                "ispublic": 1,
                "isfriend": 0,
                "isfamily": 0,
                "license": "1",
                "description": {
                    "_content": ""
                },
                "ownername": "latca"
            },
            {
                "id": "3046278336",
                "owner": "11721658@N00",
                "secret": "54b21dc05e",
                "server": "3270",
                "farm": 4,
                "title": "Fish",
                "ispublic": 1,
                "isfriend": 0,
                "isfamily": 0,
                "license": "4",
                "description": {
                    "_content": ""
                },
                "ownername": "Pardee Ave."
            },
            {
                "id": "380786367",
                "owner": "96061899@N00",
                "secret": "6547f1f831",
                "server": "141",
                "farm": 1,
                "title": "Fish",
                "ispublic": 1,
                "isfriend": 0,
                "isfamily": 0,
                "license": "3",
                "description": {
                    "_content": ""
                },
                "ownername": "Duncan Creamer"
            },
            {
                "id": "14034050061",
                "owner": "44093058@N06",
                "secret": "7a724d3666",
                "server": "5019",
                "farm": 6,
                "title": "Fish",
                "ispublic": 1,
                "isfriend": 0,
                "isfamily": 0,
                "license": "4",
                "description": {
                    "_content": "Green house pond with fish\n\nBotaniska tr\u00e4dg\u00e5rden, G\u00f6teborg, Sweden"
                },
                "ownername": "blondinrikard"
            },
            {
                "id": "6862936460",
                "owner": "35027905@N04",
                "secret": "355884ae35",
                "server": "7233",
                "farm": 8,
                "title": "Fish",
                "ispublic": 1,
                "isfriend": 0,
                "isfamily": 0,
                "license": "2",
                "description": {
                    "_content": ""
                },
                "ownername": "WELS.net"
            },
            {
                "id": "9437790394",
                "owner": "13523064@N03",
                "secret": "c6b7000ab3",
                "server": "5441",
                "farm": 6,
                "title": "Fishes",
                "ispublic": 1,
                "isfriend": 0,
                "isfamily": 0,
                "license": "6",
                "description": {
                    "_content": ""
                },
                "ownername": "llee_wu"
            }
        ]
    },
    "stat": "ok"
}
