{"photos":{"page":1,"pages":6249,"perpage":30,"total":"187453","photo":[{"id":"4703637309","owner":"65179586@N00","secret":"deafff407e","server":"4012","farm":5,"title":"Pizza","ispublic":1,"isfriend":0,"isfamily":0,"license":"2","description":{"_content":"Pizza!"},"ownername":"Cedric Collins"},{"id":"3630322910","owner":"97249369@N00","secret":"51505e1559","server":"3619","farm":4,"title":"Pizza","ispublic":1,"isfriend":0,"isfamily":0,"license":"2","description":{"_content":"From Maciotto"},"ownername":"kattebelletje"},{"id":"51534495","owner":"92203585@N00","secret":"38a27d1fdc","server":"27","farm":1,"title":"Pizza","ispublic":1,"isfriend":0,"isfamily":0,"license":"4","description":{"_content":""},"ownername":"jetalone"},{"id":"17403523","owner":"91151414@N00","secret":"c057094671","server":"12","farm":1,"title":"Pizza","ispublic":1,"isfriend":0,"isfamily":0,"license":"6","description":{"_content":"From the <a href=\"http:\/\/www.pizzacafe.net\/gourmetpizza.htm\">Pizza Cafe<\/a>:\nOld World and Deli Pizza"},"ownername":"The Eggplant"},{"id":"232223852","owner":"49503017814@N01","secret":"c6982bf66a","server":"88","farm":1,"title":"Pizza","ispublic":1,"isfriend":0,"isfamily":0,"license":"2","description":{"_content":"I was so happy with how this pizza came out that I took a photo of it."},"ownername":"smackfu"},{"id":"5262328244","owner":"38362140@N07","secret":"daa0471062","server":"5086","farm":6,"title":"Pizza","ispublic":1,"isfriend":0,"isfamily":0,"license":"2","description":{"_content":""},"ownername":"Luiz Claudio Monteiro"},{"id":"2956732367","owner":"25803652@N04","secret":"28382fe77e","server":"3052","farm":4,"title":"Pizza","ispublic":1,"isfriend":0,"isfamily":0,"license":"1","description":{"_content":"I made pizza again."},"ownername":"_heycarsten"},{"id":"6961404927","owner":"76758469@N00","secret":"9363875bda","server":"7065","farm":8,"title":"Pizza","ispublic":1,"isfriend":0,"isfamily":0,"license":"4","description":{"_content":""},"ownername":"Yuya Tamai"},{"id":"4607943248","owner":"66937333@N00","secret":"79f395cd58","server":"1409","farm":2,"title":"pizza","ispublic":1,"isfriend":0,"isfamily":0,"license":"2","description":{"_content":""},"ownername":"FabioHofnik"},{"id":"5666351868","owner":"50379390@N04","secret":"3155240145","server":"5101","farm":6,"title":"Pizza","ispublic":1,"isfriend":0,"isfamily":0,"license":"5","description":{"_content":"Top-down photo for use in video games and the like."},"ownername":"ZTurtleMan"},{"id":"3586773665","owner":"88589827@N00","secret":"961869e391","server":"2440","farm":3,"title":"Pizza","ispublic":1,"isfriend":0,"isfamily":0,"license":"2","description":{"_content":"from Pizza of Italy, DC"},"ownername":"aawiseman"},{"id":"52498996","owner":"15495998@N00","secret":"6dd3c83701","server":"27","farm":1,"title":"Pizza","ispublic":1,"isfriend":0,"isfamily":0,"license":"5","description":{"_content":"Ready for consumption."},"ownername":"willismonroe"},{"id":"6848740551","owner":"35034346243@N01","secret":"5105fd3251","server":"7068","farm":8,"title":"pizza","ispublic":1,"isfriend":0,"isfamily":0,"license":"5","description":{"_content":"very good"},"ownername":"stu_spivack"},{"id":"13075790374","owner":"62942199@N08","secret":"a89c3beeee","server":"2179","farm":3,"title":"Pizza","ispublic":1,"isfriend":0,"isfamily":0,"license":"1","description":{"_content":"\u30ac\u30fc\u30c7\u30f3\u30d0\u30fc\u30eb\uff06\u30b3\u30fc\u30d2\u30fc\u30b8\u30e3\u30d1\u30f3\n\u5927\u962a\u5e9c\u5927\u962a\u5e02\u4e2d\u592e\u533a\u5185\u672c\u753a2-1-4 3\uff26"},"ownername":"Takashi H"},{"id":"14064697874","owner":"12173213@N00","secret":"2cb215b532","server":"2898","farm":3,"title":"Pizza","ispublic":1,"isfriend":0,"isfamily":0,"license":"5","description":{"_content":"                                                               "},"ownername":"matsuyuki"},{"id":"9543855143","owner":"44048553@N03","secret":"23d2bddfaa","server":"5480","farm":6,"title":"Pizza","ispublic":1,"isfriend":0,"isfamily":0,"license":"4","description":{"_content":"Food"},"ownername":"Gonmi"},{"id":"6002153203","owner":"24313804@N05","secret":"6c7c43b449","server":"6015","farm":7,"title":"Pizza","ispublic":1,"isfriend":0,"isfamily":0,"license":"6","description":{"_content":"ganze 10 Kilo Typ 00 Mehl gekauft und damit experimentiert"},"ownername":"Pierre Wolfer"},{"id":"5420295533","owner":"13408740@N00","secret":"cda06ff839","server":"5055","farm":6,"title":"pizza","ispublic":1,"isfriend":0,"isfamily":0,"license":"6","description":{"_content":"sundried tomato pizza at Cafe Tu tu Tango in Orange County at The Block"},"ownername":"samantha celera"},{"id":"4860575218","owner":"76698931@N00","secret":"676ba46c48","server":"4100","farm":5,"title":"Pizza","ispublic":1,"isfriend":0,"isfamily":0,"license":"3","description":{"_content":"Desde hace varios meses que he estado preparando pizza casi todas las semanas. Creo que me he vuelto bastante bueno o al menos le estoy agarrando el ritmo, aunque todav\u00eda estoy en una etapa de experimentaci\u00f3n con los ingredientes, en b\u00fasqueda de la perfecci\u00f3n.\n\nEn la foto:\n\nMasa casera, salsa casera, jam\u00f3n pierna, mozzarella, or\u00e9gano.\n\nEl molde de vidrio no me gust\u00f3 mucho, me falta una piedra y\/o un horno de le\u00f1a :(\n\n"},"ownername":"Ramen Kurisu"},{"id":"2145062772","owner":"44124420092@N01","secret":"2b4be68853","server":"2329","farm":3,"title":"pizza","ispublic":1,"isfriend":0,"isfamily":0,"license":"3","description":{"_content":""},"ownername":"tamaki"},{"id":"2614115111","owner":"25311272@N00","secret":"89c294be1b","server":"3047","farm":4,"title":"pizza","ispublic":1,"isfriend":0,"isfamily":0,"license":"3","description":{"_content":"\n<i>Wys\u0142ane z <a href=\"http:\/\/www.flock.com\/\">Flocka<\/a><\/i>"},"ownername":"K0P"},{"id":"3889768527","owner":"22344566@N02","secret":"6d5c63ac65","server":"2620","farm":3,"title":"Pizza","ispublic":1,"isfriend":0,"isfamily":0,"license":"1","description":{"_content":"&quot;Perperonata&quot; pizza with goat cheese at Domenica, New Orleans"},"ownername":"rdpeyton"},{"id":"6161095587","owner":"35034346243@N01","secret":"11e9aa6041","server":"6163","farm":7,"title":"pizza","ispublic":1,"isfriend":0,"isfamily":0,"license":"5","description":{"_content":""},"ownername":"stu_spivack"},{"id":"6849466255","owner":"35034346243@N01","secret":"003c864c9e","server":"7044","farm":8,"title":"pizza","ispublic":1,"isfriend":0,"isfamily":0,"license":"5","description":{"_content":"delicious"},"ownername":"stu_spivack"},{"id":"377533693","owner":"36445661@N00","secret":"945e8a8f97","server":"98","farm":1,"title":"pizza","ispublic":1,"isfriend":0,"isfamily":0,"license":"3","description":{"_content":""},"ownername":"whizchickenonabun"},{"id":"4710145271","owner":"47429460@N00","secret":"816e99e046","server":"4028","farm":5,"title":"pizza","ispublic":1,"isfriend":0,"isfamily":0,"license":"5","description":{"_content":"Hooray! It's tomato season again. Pizza margherita with Cherokee purple tomatoes from <a href=\"http:\/\/www.snowsbendfarm.com\" rel=\"nofollow\">Snow's Bend Farm.<\/a>"},"ownername":"ted_major"},{"id":"154924304","owner":"31345288@N00","secret":"02891be48a","server":"61","farm":1,"title":"pizza","ispublic":1,"isfriend":0,"isfamily":0,"license":"4","description":{"_content":"yum!"},"ownername":"tioat"},{"id":"99845605","owner":"34427470616@N01","secret":"e4666ceff4","server":"31","farm":1,"title":"Pizza","ispublic":1,"isfriend":0,"isfamily":0,"license":"2","description":{"_content":""},"ownername":"duncan"},{"id":"394023409","owner":"35034358028@N01","secret":"fda0a2aeb7","server":"165","farm":1,"title":"Pizza","ispublic":1,"isfriend":0,"isfamily":0,"license":"3","description":{"_content":"Rich."},"ownername":"paolovalde"},{"id":"42293726","owner":"35034346243@N01","secret":"84496210d6","server":"30","farm":1,"title":"pizza","ispublic":1,"isfriend":0,"isfamily":0,"license":"5","description":{"_content":""},"ownername":"stu_spivack"}]},"stat":"ok"}